<svg xmlns="http://www.w3.org/2000/svg" width="46.63" height="21.52" viewBox="0 0 46.63 21.52">
  <g id="leaf" transform="translate(45.13 1.5) rotate(90)">
    <path id="Path_3" data-name="Path 3" d="M9.26,0c2.434,0,9.26,7.495,9.26,16.74S12.187,33.48,9.26,33.48,0,25.985,0,16.74,6.826,0,9.26,0Z" fill="none" stroke="#f8c843" stroke-linecap="round" stroke-width="3" opacity="0.47"/>
    <line id="Line_4" data-name="Line 4" y2="33.5" transform="translate(9.438 10.13)" fill="none" stroke="#f8c843" stroke-linecap="round" stroke-width="3" opacity="0.47"/>
  </g>
</svg>
